dump.vcd
$date
	Thu Nov 13 12:43:21 2025
$end
$version
	Icarus Verilog
$end
$timescale
	1ps
$end
$scope module controltb $end
$var wire 2 ! wb [1:0] $end
$var wire 3 " mem [2:0] $end
$var wire 4 # ex [3:0] $end
$var parameter 6 $ BEQ $end
$var parameter 6 % LW $end
$var parameter 6 & NOP $end
$var parameter 6 ' RTYPE $end
$var parameter 6 ( SW $end
$var reg 1 ) clk $end
$var reg 6 * opcode [5:0] $end
$var reg 1 + rst $end
$scope module CONTROLTB $end
$var wire 1 ) clk $end
$var wire 6 , opcode [5:0] $end
$var wire 1 + rst $end
$var parameter 6 - BEQ $end
$var parameter 6 . LW $end
$var parameter 6 / NOP $end
$var parameter 6 0 RTYPE $end
$var parameter 6 1 SW $end
$var reg 4 2 ex [3:0] $end
$var reg 3 3 mem [2:0] $end
$var reg 2 4 wb [1:0] $end
$upscope $end
$upscope $end
$scope module regfiletb $end
$var wire 32 5 B_readdat2 [31:0] $end
$var wire 32 6 A_readdat1 [31:0] $end
$var reg 1 7 clk $end
$var reg 5 8 rd [4:0] $end
$var reg 1 9 regwrite $end
$var reg 5 : rs [4:0] $end
$var reg 1 ; rst $end
$var reg 5 < rt [4:0] $end
$var reg 32 = writedata [31:0] $end
$scope module REGFILETB $end
$var wire 1 7 clk $end
$var wire 5 > rd [4:0] $end
$var wire 1 9 regwrite $end
$var wire 5 ? rs [4:0] $end
$var wire 1 ; rst $end
$var wire 5 @ rt [4:0] $end
$var wire 32 A writedata [31:0] $end
$var reg 32 B A_readdat1 [31:0] $end
$var reg 32 C B_readdat2 [31:0] $end
$upscope $end
$upscope $end
$scope module signtb $end
$var wire 32 D extended [31:0] $end
$var reg 16 E immediat [15:0] $end
$scope module SETB $end
$var wire 16 F immediate [15:0] $end
$var wire 32 G extended [31:0] $end
$upscope $end
$upscope $end
$scope module testbench $end
$var wire 4 H if_ex_execute [3:0] $end
$var wire 2 I id_ex_wb [1:0] $end
$var wire 32 J id_ex_sign_ext [31:0] $end
$var wire 32 K id_ex_readdat2 [31:0] $end
$var wire 32 L id_ex_readdat1 [31:0] $end
$var wire 32 M id_ex_npc [31:0] $end
$var wire 3 N id_ex_mem [2:0] $end
$var wire 5 O id_ex_instr_bits_2016 [4:0] $end
$var wire 5 P id_ex_instr_bits_1511 [4:0] $end
$var reg 1 Q clk $end
$var reg 32 R if_id_instr [31:0] $end
$var reg 32 S if_id_npc [31:0] $end
$var reg 32 T mem_wb_write_data [31:0] $end
$var reg 1 U rst $end
$var reg 1 V wb_reg_write $end
$var reg 5 W wb_write_reg_location [4:0] $end
$scope module ll1 $end
$var wire 1 Q clk $end
$var wire 32 X if_id_instr [31:0] $end
$var wire 32 Y if_id_npc [31:0] $end
$var wire 32 Z mem_wb_write_data [31:0] $end
$var wire 1 U rst $end
$var wire 1 V wb_reg_write $end
$var wire 5 [ wb_write_reg_location [4:0] $end
$var wire 2 \ wb [1:0] $end
$var wire 32 ] sign_ext [31:0] $end
$var wire 32 ^ readdat2 [31:0] $end
$var wire 32 _ readdat1 [31:0] $end
$var wire 3 ` mem [2:0] $end
$var wire 2 a id_ex_wb [1:0] $end
$var wire 32 b id_ex_sign_ext [31:0] $end
$var wire 32 c id_ex_readdat2 [31:0] $end
$var wire 32 d id_ex_readdat1 [31:0] $end
$var wire 32 e id_ex_npc [31:0] $end
$var wire 3 f id_ex_mem [2:0] $end
$var wire 5 g id_ex_instr_bits_2016 [4:0] $end
$var wire 5 h id_ex_instr_bits_1511 [4:0] $end
$var wire 4 i id_ex_execute [3:0] $end
$var wire 4 j execute [3:0] $end
$scope module u1 $end
$var wire 1 Q clk $end
$var wire 6 k opcode [5:0] $end
$var wire 1 U rst $end
$var parameter 6 l BEQ $end
$var parameter 6 m LW $end
$var parameter 6 n NOP $end
$var parameter 6 o RTYPE $end
$var parameter 6 p SW $end
$var reg 4 q ex [3:0] $end
$var reg 3 r mem [2:0] $end
$var reg 2 s wb [1:0] $end
$upscope $end
$scope module u2 $end
$var wire 16 t immediate [15:0] $end
$var wire 32 u extended [31:0] $end
$upscope $end
$scope module u3 $end
$var wire 1 Q clk $end
$var wire 5 v rd [4:0] $end
$var wire 1 V regwrite $end
$var wire 5 w rs [4:0] $end
$var wire 1 U rst $end
$var wire 5 x rt [4:0] $end
$var wire 32 y writedata [31:0] $end
$var reg 32 z A_readdat1 [31:0] $end
$var reg 32 { B_readdat2 [31:0] $end
$upscope $end
$scope module u4 $end
$var wire 1 Q clk $end
$var wire 4 | ctl_ex [3:0] $end
$var wire 3 } ctl_mem [2:0] $end
$var wire 2 ~ ctl_wb [1:0] $end
$var wire 5 !" instr_bits_1511 [4:0] $end
$var wire 5 "" instr_bits_2016 [4:0] $end
$var wire 32 #" npc [31:0] $end
$var wire 32 $" readdat1 [31:0] $end
$var wire 32 %" readdat2 [31:0] $end
$var wire 1 U rst $end
$var wire 32 &" sign_ext [31:0] $end
$var reg 4 '" ctl_ex_out [3:0] $end
$var reg 3 (" ctl_mem_out [2:0] $end
$var reg 2 )" ctl_wb_out [1:0] $end
$var reg 5 *" instr_bits_1511_out [4:0] $end
$var reg 5 +" instr_bits_2016_out [4:0] $end
$var reg 32 ," npc_out [31:0] $end
$var reg 32 -" readdat1_out [31:0] $end
$var reg 32 ." readdat2_out [31:0] $end
$var reg 32 /" sign_ext_out [31:0] $end
$upscope $end
$upscope $end
$upscope $end
$enddefinitions $end
$comment Show the parameter values. $end
$dumpall
b101011 p
b0 o
b100000 n
b100011 m
b100 l
b101011 1
b0 0
b100000 /
b100011 .
b100 -
b101011 (
b0 '
b100000 &
b100011 %
b100 $
$end
#0
$dumpvars
bx /"
bx ."
bx -"
bx ,"
bx +"
bx *"
bx )"
bx ("
bx '"
b1000000100000 &"
bx %"
bx $"
b1 #"
b100 ""
b10 !"
b0 ~
b0 }
b0 |
bx {
bx z
b1100100 y
b100 x
b101 w
b10 v
b1000000100000 u
b1000000100000 t
b0 s
b0 r
b0 q
b0 k
b0 j
bx i
bx h
bx g
bx f
bx e
bx d
bx c
bx b
bx a
b0 `
bx _
bx ^
b1000000100000 ]
b0 \
b10 [
b1100100 Z
b1 Y
b101001000001000000100000 X
b10 W
0V
1U
b1100100 T
b1 S
b101001000001000000100000 R
0Q
bx P
bx O
bx N
bx M
bx L
bx K
bx J
bx I
bx H
b11111111111111111111111111111111 G
b1111111111111111 F
b1111111111111111 E
b11111111111111111111111111111111 D
bx C
bx B
b10101010101010101010101010101010 A
b10 @
b0 ?
b10 >
b10101010101010101010101010101010 =
b10 <
1;
b0 :
09
b10 8
07
bx 6
bx 5
b0 4
b0 3
b0 2
b0 ,
1+
b0 *
0)
b0 #
b0 "
b0 !
$end
#1000
b0 P
b0 h
b0 *"
b0 O
b0 g
b0 +"
b0 J
b0 b
b0 /"
b0 K
b0 c
b0 ."
b0 L
b0 d
b0 -"
b0 M
b0 e
b0 ,"
b0 H
b0 i
b0 '"
b0 N
b0 f
b0 ("
b0 I
b0 a
b0 )"
b0 ^
b0 {
b0 %"
b0 _
b0 z
b0 $"
b0 5
b0 C
b0 6
b0 B
1Q
17
#2000
0Q
07
0U
b11111111111111 D
b11111111111111 G
b11111111111111 E
b11111111111111 F
1)
#3000
b10 P
b10 h
b10 *"
b100 O
b100 g
b100 +"
b1000000100000 J
b1000000100000 b
b1000000100000 /"
b1 M
b1 e
b1 ,"
b10001111000100100011010001010110 ^
b10001111000100100011010001010110 {
b10001111000100100011010001010110 %"
b10101101011001010100001100100001 _
b10101101011001010100001100100001 z
b10101101011001010100001100100001 $"
b1100 j
b1100 q
b1100 |
b10 \
b10 s
b10 ~
1Q
17
#4000
b100 k
b1000 ]
b1000 u
b1000 &"
b1000 t
b0 w
b0 x
b0 ""
b0 !"
0Q
07
b10000000000000000000000001000 R
b10000000000000000000000001000 X
b10 S
b10 Y
b10 #"
0)
#5000
b10 j
b10 q
b10 |
b100 `
b100 r
b100 }
b0 \
b0 s
b0 ~
b1000110000000010101010 ^
b1000110000000010101010 {
b1000110000000010101010 %"
b1000110000000010101010 _
b1000110000000010101010 z
b1000110000000010101010 $"
b0 P
b0 h
b0 *"
b0 O
b0 g
b0 +"
b1000 J
b1000 b
b1000 /"
b10001111000100100011010001010110 K
b10001111000100100011010001010110 c
b10001111000100100011010001010110 ."
b10101101011001010100001100100001 L
b10101101011001010100001100100001 d
b10101101011001010100001100100001 -"
b10 M
b10 e
b10 ,"
b1100 H
b1100 i
b1100 '"
b10 I
b10 a
b10 )"
1Q
17
#6000
b1100 #
b1100 2
b10 !
b10 4
b100011 k
b10 ]
b10 u
b10 &"
b10 t
b100 w
b10 x
b10 ""
0Q
07
b10001100100000100000000000000010 R
b10001100100000100000000000000010 X
b11 S
b11 Y
b11 #"
1)
0+
#7000
b10 O
b10 g
b10 +"
b10 J
b10 b
b10 /"
b1000110000000010101010 K
b1000110000000010101010 c
b1000110000000010101010 ."
b1000110000000010101010 L
b1000110000000010101010 d
b1000110000000010101010 -"
b11 M
b11 e
b11 ,"
b10 H
b10 i
b10 '"
b100 N
b100 f
b100 ("
b0 I
b0 a
b0 )"
b100000000000000100010 ^
b100000000000000100010 {
b100000000000000100010 %"
b10001111000100100011010001010110 _
b10001111000100100011010001010110 z
b10001111000100100011010001010110 $"
b1 j
b1 q
b1 |
b10 `
b10 r
b10 }
b11 \
b11 s
b11 ~
1Q
17
#8000
b101011 k
0Q
07
1V
b10101100100000100000000000000010 R
b10101100100000100000000000000010 X
b101 S
b101 Y
b101 #"
0)
#9000
b1 `
b1 r
b1 }
b0 \
b0 s
b0 ~
b100000000000000100010 K
b100000000000000100010 c
b100000000000000100010 ."
b10001111000100100011010001010110 L
b10001111000100100011010001010110 d
b10001111000100100011010001010110 -"
b101 M
b101 e
b101 ,"
b1 H
b1 i
b1 '"
b10 N
b10 f
b10 ("
b11 I
b11 a
b11 )"
1Q
17
#10000
b0 k
b1000000100000 ]
b1000000100000 u
b1000000100000 &"
b1000000100000 t
b10 w
b10 !"
0Q
07
0V
b110 S
b110 Y
b110 #"
b10000100001000000100000 R
b10000100001000000100000 X
1)
0;
#11000
b10 P
b10 h
b10 *"
b1000000100000 J
b1000000100000 b
b1000000100000 /"
b110 M
b110 e
b110 ,"
b1 N
b1 f
b1 ("
b0 I
b0 a
b0 )"
b1100100 ^
b1100100 {
b1100100 %"
b1100100 _
b1100100 z
b1100100 $"
b1100 j
b1100 q
b1100 |
b0 `
b0 r
b0 }
b10 \
b10 s
b10 ~
b100000000000000100010 5
b100000000000000100010 C
b1000110000000010101010 6
b1000110000000010101010 B
1Q
17
#12000
0Q
07
0)
b100011 *
b100011 ,
#13000
b1100100 K
b1100100 c
b1100100 ."
b1100100 L
b1100100 d
b1100100 -"
b1100 H
b1100 i
b1100 '"
b0 N
b0 f
b0 ("
b10 I
b10 a
b10 )"
1Q
17
#14000
b1 #
b1 2
b10 "
b10 3
b11 !
b11 4
0Q
07
1)
#15000
1Q
17
#16000
0Q
07
0)
#17000
1Q
17
#18000
b1 "
b1 3
b0 !
b0 4
0Q
07
1)
b101011 *
b101011 ,
#19000
1Q
17
#20000
0Q
07
0)
19
#21000
1Q
17
#22000
0Q
07
1)
#23000
1Q
17
#24000
0Q
07
0)
b100 *
b100 ,
#25000
1Q
17
#26000
b10 #
b10 2
b100 "
b100 3
0Q
07
1)
#27000
1Q
17
#28000
0Q
07
0)
#29000
1Q
17
#30000
b0 #
b0 2
b0 "
b0 3
0Q
07
1)
b100000 *
b100000 ,
09
#31000
b10101010101010101010101010101010 5
b10101010101010101010101010101010 C
1Q
17
#32000
0Q
07
0)
#33000
1Q
17
#34000
0Q
07
1)
#35000
1Q
17
#36000
0Q
07
0)
b111100 *
b111100 ,
